<svg width="161" height="225" viewBox="0 0 161 225" fill="none" xmlns="http://www.w3.org/2000/svg">
<g filter="url(#filter0_d_373_38)">
<path d="M84.5107 147.939C69.8839 148.35 55.4635 144.415 43.0731 136.631C30.6827 128.847 20.8789 117.563 14.9013 104.207C8.92371 90.8512 7.04088 76.0225 9.49091 61.5964C11.9409 47.1704 18.6138 33.7948 28.6656 23.1611C38.7174 12.5274 51.6967 5.11322 65.9623 1.85613C80.2278 -1.40096 95.1388 -0.354685 108.81 4.86265C122.481 10.08 134.297 19.2341 142.766 31.1673C151.234 43.1005 155.974 57.2769 156.385 71.9037L82.4304 73.984L84.5107 147.939Z" fill="url(#paint0_linear_373_38)"/>
<path fill-rule="evenodd" clip-rule="evenodd" d="M156.385 71.9037C156.385 71.901 156.385 71.8982 156.385 71.8955C156.292 68.6177 155.982 65.3625 155.462 62.1501C153.66 51.0305 149.335 40.424 142.766 31.1673C134.297 19.2341 122.481 10.08 108.81 4.86265C95.1388 -0.354685 80.2278 -1.40096 65.9623 1.85613C51.6967 5.11322 38.7174 12.5274 28.6656 23.1611C18.6138 33.7948 11.9409 47.1704 9.49091 61.5964C7.04088 76.0225 8.92371 90.8512 14.9013 104.207C20.8789 117.563 30.6827 128.847 43.0731 136.631C52.6845 142.669 63.5174 146.391 74.7206 147.565C77.9551 147.904 81.2205 148.031 84.4962 147.939C84.5011 147.939 84.5059 147.939 84.5107 147.939L82.4304 73.984L156.385 71.9037ZM74.4429 137.694L72.3837 64.487L145.59 62.4278C143.91 53.2463 140.241 44.5008 134.794 36.8248C127.444 26.4683 117.189 18.5238 105.324 13.9959C93.4597 9.46791 80.5189 8.55989 68.1383 11.3866C55.7577 14.2133 44.4933 20.6479 35.7697 29.8765C27.0461 39.1051 21.2549 50.7133 19.1286 63.2333C17.0023 75.7532 18.6364 88.6224 23.8241 100.214C29.0119 111.805 37.5203 121.597 48.2735 128.353C56.2436 133.36 65.1815 136.532 74.4429 137.694Z" fill="white"/>
<path d="M76.1772 68.4671C90.8056 68.114 105.21 72.1067 117.569 79.9402C129.929 87.7737 139.687 99.0963 145.612 112.476C151.536 125.856 153.36 140.692 150.852 155.108C148.344 169.524 141.618 182.873 131.524 193.467C121.43 204.06 108.421 211.422 94.1427 214.622C79.8642 217.823 64.9575 216.717 51.3075 211.445C37.6575 206.173 25.8774 196.972 17.4567 185.005C9.03605 173.038 4.35308 158.843 4 144.215L77.9624 142.43L76.1772 68.4671Z" fill="url(#paint1_linear_373_38)"/>
<path fill-rule="evenodd" clip-rule="evenodd" d="M4 144.215C4.07919 147.496 4.3762 150.755 4.88434 153.972C6.64177 165.099 10.9247 175.722 17.4567 185.005C25.8774 196.972 37.6575 206.173 51.3075 211.445C64.9575 216.717 79.8642 217.823 94.1427 214.622C108.421 211.422 121.43 204.06 131.524 193.467C141.618 182.873 148.344 169.524 150.852 155.108C153.36 140.692 151.536 125.856 145.612 112.476C139.687 99.0963 129.929 87.7737 117.569 79.9402C107.982 73.8637 97.1642 70.0983 85.9658 68.8797C82.7279 68.5273 79.4582 68.3879 76.1772 68.4671L77.9624 142.43L4 144.215ZM86.2041 78.7524L87.9712 151.967L14.757 153.734C16.4004 162.922 20.0349 171.682 25.4515 179.38C32.7595 189.765 42.9832 197.751 54.8295 202.326C66.6759 206.901 79.6129 207.861 92.0047 205.083C104.396 202.306 115.686 195.917 124.447 186.723C133.207 177.529 139.045 165.944 141.221 153.433C143.397 140.921 141.814 128.046 136.673 116.434C131.531 104.822 123.062 94.9956 112.336 88.1971C104.386 83.1582 95.4607 79.9505 86.2041 78.7524Z" fill="white"/>
</g>
<defs>
<filter id="filter0_d_373_38" x="0" y="0" width="160.385" height="224.414" filterUnits="userSpaceOnUse" color-interpolation-filters="sRGB">
<feFlood flood-opacity="0" result="BackgroundImageFix"/>
<feColorMatrix in="SourceAlpha" type="matrix" values="0 0 0 0 0 0 0 0 0 0 0 0 0 0 0 0 0 0 127 0" result="hardAlpha"/>
<feOffset dy="4"/>
<feGaussianBlur stdDeviation="2"/>
<feComposite in2="hardAlpha" operator="out"/>
<feColorMatrix type="matrix" values="0 0 0 0 0.517647 0 0 0 0 0.407843 0 0 0 0 0.960784 0 0 0 1 0"/>
<feBlend mode="normal" in2="BackgroundImageFix" result="effect1_dropShadow_373_38"/>
<feBlend mode="normal" in="SourceGraphic" in2="effect1_dropShadow_373_38" result="shape"/>
</filter>
<linearGradient id="paint0_linear_373_38" x1="88.0782" y1="4.94186e-09" x2="86.6553" y2="209.639" gradientUnits="userSpaceOnUse">
<stop stop-color="#7C83FD"/>
<stop offset="0.770833" stop-color="#96BAFF"/>
</linearGradient>
<linearGradient id="paint1_linear_373_38" x1="87.7386" y1="0" x2="87.7386" y2="216.413" gradientUnits="userSpaceOnUse">
<stop stop-color="#7DEDFF"/>
<stop offset="0.688202" stop-color="#96BAFF"/>
</linearGradient>
</defs>
</svg>
